module gitlab.com/xyko/mycat

require (
	github.com/sirupsen/logrus v1.2.0
	golang.org/x/crypto v0.0.0-20181203042331-505ab145d0a9 // indirect
	golang.org/x/sys v0.0.0-20181210030007-2a47403f2ae5 // indirect
)
